\relax 
\providecommand\hyper@newdestlabel[2]{}
\providecommand\HyperFirstAtBeginDocument{\AtBeginDocument}
\HyperFirstAtBeginDocument{\ifx\hyper@anchor\@undefined
\global\let\oldcontentsline\contentsline
\gdef\contentsline#1#2#3#4{\oldcontentsline{#1}{#2}{#3}}
\global\let\oldnewlabel\newlabel
\gdef\newlabel#1#2{\newlabelxx{#1}#2}
\gdef\newlabelxx#1#2#3#4#5#6{\oldnewlabel{#1}{{#2}{#3}}}
\AtEndDocument{\ifx\hyper@anchor\@undefined
\let\contentsline\oldcontentsline
\let\newlabel\oldnewlabel
\fi}
\fi}
\global\let\hyper@last\relax 
\gdef\HyperFirstAtBeginDocument#1{#1}
\providecommand\HyField@AuxAddToFields[1]{}
\providecommand\HyField@AuxAddToCoFields[2]{}
\providecommand \oddpage@label [2]{}
\@writefile{toc}{\contentsline {chapter}{\numberline {1}Math\discretionary {\unhbox \voidb@x \hbox {\relax \fontsize  {7}{8}\selectfont  $\leftarrow \joinrel  \rhook $}}{}{}Expression}{1}{chapter.1}}
\@writefile{lof}{\addvspace {10\p@ }}
\@writefile{lot}{\addvspace {10\p@ }}
\newlabel{md_README}{{1}{1}{Math\+Expression}{chapter.1}{}}
\@writefile{toc}{\contentsline {chapter}{\numberline {2}Class Index}{3}{chapter.2}}
\@writefile{lof}{\addvspace {10\p@ }}
\@writefile{lot}{\addvspace {10\p@ }}
\@writefile{toc}{\contentsline {section}{\numberline {2.1}Class List}{3}{section.2.1}}
\@writefile{toc}{\contentsline {chapter}{\numberline {3}File Index}{5}{chapter.3}}
\@writefile{lof}{\addvspace {10\p@ }}
\@writefile{lot}{\addvspace {10\p@ }}
\@writefile{toc}{\contentsline {section}{\numberline {3.1}File List}{5}{section.3.1}}
\gdef \LT@i {\LT@entry 
    {3}{56.04437pt}\LT@entry 
    {3}{203.55597pt}}
\@writefile{toc}{\contentsline {chapter}{\numberline {4}Class Documentation}{7}{chapter.4}}
\@writefile{lof}{\addvspace {10\p@ }}
\@writefile{lot}{\addvspace {10\p@ }}
\@writefile{toc}{\contentsline {section}{\numberline {4.1}Math\discretionary {\unhbox \voidb@x \hbox {\relax \fontsize  {7}{8}\selectfont  $\leftarrow \joinrel  \rhook $}}{}{}Expression Class Reference}{7}{section.4.1}}
\newlabel{class_math_expression}{{4.1}{7}{Math\+Expression Class Reference}{section.4.1}{}}
\@writefile{toc}{\contentsline {subsection}{\numberline {4.1.1}Detailed Description}{7}{subsection.4.1.1}}
\@writefile{toc}{\contentsline {subsection}{\numberline {4.1.2}Constructor \& Destructor Documentation}{7}{subsection.4.1.2}}
\@writefile{toc}{\contentsline {subsubsection}{\numberline {4.1.2.1}Math\discretionary {\unhbox \voidb@x \hbox {\relax \fontsize  {7}{8}\selectfont  $\leftarrow \joinrel  \rhook $}}{}{}Expression(const std\discretionary {\unhbox \voidb@x \hbox {\relax \fontsize  {7}{8}\selectfont  $\leftarrow \joinrel  \rhook $}}{}{}::string \&expression)}{7}{subsubsection.4.1.2.1}}
\newlabel{class_math_expression_aac41b4117ce16940ee1dbcdcba8a9b37}{{4.1.2.1}{7}{\texorpdfstring {Math\+Expression(const std\+::string \&expression)}{MathExpression(const std::string &expression)}}{subsubsection.4.1.2.1}{}}
\@writefile{toc}{\contentsline {subsection}{\numberline {4.1.3}Member Function Documentation}{8}{subsection.4.1.3}}
\@writefile{toc}{\contentsline {subsubsection}{\numberline {4.1.3.1}calculate() const }{8}{subsubsection.4.1.3.1}}
\newlabel{class_math_expression_a7038aeef247fd5c2d2af5c98f740c0f4}{{4.1.3.1}{8}{\texorpdfstring {calculate() const }{calculate() const }}{subsubsection.4.1.3.1}{}}
\@writefile{toc}{\contentsline {subsubsection}{\numberline {4.1.3.2}error\discretionary {\unhbox \voidb@x \hbox {\relax \fontsize  {7}{8}\selectfont  $\leftarrow \joinrel  \rhook $}}{}{}Message() const }{8}{subsubsection.4.1.3.2}}
\newlabel{class_math_expression_a8c3ff0e2a54912fc2b239cbf8799aeaa}{{4.1.3.2}{8}{\texorpdfstring {error\+Message() const }{errorMessage() const }}{subsubsection.4.1.3.2}{}}
\@writefile{toc}{\contentsline {subsubsection}{\numberline {4.1.3.3}infix\discretionary {\unhbox \voidb@x \hbox {\relax \fontsize  {7}{8}\selectfont  $\leftarrow \joinrel  \rhook $}}{}{}Notation() const }{8}{subsubsection.4.1.3.3}}
\newlabel{class_math_expression_a5e5bb60563fec2cadf2eb3fad7e43a18}{{4.1.3.3}{8}{\texorpdfstring {infix\+Notation() const }{infixNotation() const }}{subsubsection.4.1.3.3}{}}
\@writefile{toc}{\contentsline {subsubsection}{\numberline {4.1.3.4}is\discretionary {\unhbox \voidb@x \hbox {\relax \fontsize  {7}{8}\selectfont  $\leftarrow \joinrel  \rhook $}}{}{}Valid() const }{8}{subsubsection.4.1.3.4}}
\newlabel{class_math_expression_a2f8a6bc91e39491d63c6f76288d88a5a}{{4.1.3.4}{8}{\texorpdfstring {is\+Valid() const }{isValid() const }}{subsubsection.4.1.3.4}{}}
\@writefile{toc}{\contentsline {subsubsection}{\numberline {4.1.3.5}operator=(const std\discretionary {\unhbox \voidb@x \hbox {\relax \fontsize  {7}{8}\selectfont  $\leftarrow \joinrel  \rhook $}}{}{}::string \&expression)}{8}{subsubsection.4.1.3.5}}
\newlabel{class_math_expression_a4e41ca12c95cafea76fa2bf1b2393e75}{{4.1.3.5}{8}{\texorpdfstring {operator=(const std\+::string \&expression)}{operator=(const std::string &expression)}}{subsubsection.4.1.3.5}{}}
\gdef \LT@ii {\LT@entry 
    {3}{56.04437pt}\LT@entry 
    {3}{162.54378pt}}
\@writefile{toc}{\contentsline {subsubsection}{\numberline {4.1.3.6}postfix\discretionary {\unhbox \voidb@x \hbox {\relax \fontsize  {7}{8}\selectfont  $\leftarrow \joinrel  \rhook $}}{}{}Notation() const }{9}{subsubsection.4.1.3.6}}
\newlabel{class_math_expression_a79dc064b6e7ffd6ebd8d7770215a9be0}{{4.1.3.6}{9}{\texorpdfstring {postfix\+Notation() const }{postfixNotation() const }}{subsubsection.4.1.3.6}{}}
\@writefile{toc}{\contentsline {chapter}{\numberline {5}File Documentation}{11}{chapter.5}}
\@writefile{lof}{\addvspace {10\p@ }}
\@writefile{lot}{\addvspace {10\p@ }}
\@writefile{toc}{\contentsline {section}{\numberline {5.1}include/\discretionary {\unhbox \voidb@x \hbox {\relax \fontsize  {7}{8}\selectfont  $\leftarrow \joinrel  \rhook $}}{}{}Math\discretionary {\unhbox \voidb@x \hbox {\relax \fontsize  {7}{8}\selectfont  $\leftarrow \joinrel  \rhook $}}{}{}Expression.cpp File Reference}{11}{section.5.1}}
\newlabel{_math_expression_8cpp}{{5.1}{11}{include/\+Math\+Expression.cpp File Reference}{section.5.1}{}}
\@writefile{toc}{\contentsline {section}{\numberline {5.2}include/\discretionary {\unhbox \voidb@x \hbox {\relax \fontsize  {7}{8}\selectfont  $\leftarrow \joinrel  \rhook $}}{}{}Math\discretionary {\unhbox \voidb@x \hbox {\relax \fontsize  {7}{8}\selectfont  $\leftarrow \joinrel  \rhook $}}{}{}Expression.h File Reference}{11}{section.5.2}}
\newlabel{_math_expression_8h}{{5.2}{11}{include/\+Math\+Expression.h File Reference}{section.5.2}{}}
\@writefile{toc}{\contentsline {subsection}{\numberline {5.2.1}Detailed Description}{11}{subsection.5.2.1}}
\gdef \LT@iii {\LT@entry 
    {3}{27.80269pt}\LT@entry 
    {3}{121.85556pt}}
\@writefile{toc}{\contentsline {section}{\numberline {5.3}R\discretionary {\unhbox \voidb@x \hbox {\relax \fontsize  {7}{8}\selectfont  $\leftarrow \joinrel  \rhook $}}{}{}E\discretionary {\unhbox \voidb@x \hbox {\relax \fontsize  {7}{8}\selectfont  $\leftarrow \joinrel  \rhook $}}{}{}A\discretionary {\unhbox \voidb@x \hbox {\relax \fontsize  {7}{8}\selectfont  $\leftarrow \joinrel  \rhook $}}{}{}D\discretionary {\unhbox \voidb@x \hbox {\relax \fontsize  {7}{8}\selectfont  $\leftarrow \joinrel  \rhook $}}{}{}M\discretionary {\unhbox \voidb@x \hbox {\relax \fontsize  {7}{8}\selectfont  $\leftarrow \joinrel  \rhook $}}{}{}E.\discretionary {\unhbox \voidb@x \hbox {\relax \fontsize  {7}{8}\selectfont  $\leftarrow \joinrel  \rhook $}}{}{}md File Reference}{12}{section.5.3}}
\newlabel{_r_e_a_d_m_e_8md}{{5.3}{12}{R\+E\+A\+D\+M\+E.\+md File Reference}{section.5.3}{}}
\@writefile{toc}{\contentsline {section}{\numberline {5.4}src/main.cpp File Reference}{12}{section.5.4}}
\newlabel{main_8cpp}{{5.4}{12}{src/main.cpp File Reference}{section.5.4}{}}
\@writefile{toc}{\contentsline {subsection}{\numberline {5.4.1}Detailed Description}{12}{subsection.5.4.1}}
\@writefile{toc}{\contentsline {subsection}{\numberline {5.4.2}Function Documentation}{12}{subsection.5.4.2}}
\@writefile{toc}{\contentsline {subsubsection}{\numberline {5.4.2.1}main()}{12}{subsubsection.5.4.2.1}}
\newlabel{main_8cpp_ae66f6b31b5ad750f1fe042a706a4e3d4}{{5.4.2.1}{12}{\texorpdfstring {main()}{main()}}{subsubsection.5.4.2.1}{}}
\@writefile{toc}{\contentsline {section}{\numberline {5.5}test/\discretionary {\unhbox \voidb@x \hbox {\relax \fontsize  {7}{8}\selectfont  $\leftarrow \joinrel  \rhook $}}{}{}Catch\discretionary {\unhbox \voidb@x \hbox {\relax \fontsize  {7}{8}\selectfont  $\leftarrow \joinrel  \rhook $}}{}{}Main.cpp File Reference}{13}{section.5.5}}
\newlabel{_catch_main_8cpp}{{5.5}{13}{test/\+Catch\+Main.cpp File Reference}{section.5.5}{}}
\@writefile{toc}{\contentsline {subsection}{\numberline {5.5.1}Macro Definition Documentation}{13}{subsection.5.5.1}}
\@writefile{toc}{\contentsline {subsubsection}{\numberline {5.5.1.1}C\discretionary {\unhbox \voidb@x \hbox {\relax \fontsize  {7}{8}\selectfont  $\leftarrow \joinrel  \rhook $}}{}{}A\discretionary {\unhbox \voidb@x \hbox {\relax \fontsize  {7}{8}\selectfont  $\leftarrow \joinrel  \rhook $}}{}{}T\discretionary {\unhbox \voidb@x \hbox {\relax \fontsize  {7}{8}\selectfont  $\leftarrow \joinrel  \rhook $}}{}{}C\discretionary {\unhbox \voidb@x \hbox {\relax \fontsize  {7}{8}\selectfont  $\leftarrow \joinrel  \rhook $}}{}{}H\discretionary {\unhbox \voidb@x \hbox {\relax \fontsize  {7}{8}\selectfont  $\leftarrow \joinrel  \rhook $}}{}{}\_\discretionary {\unhbox \voidb@x \hbox {\relax \fontsize  {7}{8}\selectfont  $\leftarrow \joinrel  \rhook $}}{}{}\discretionary {\unhbox \voidb@x \hbox {\relax \fontsize  {7}{8}\selectfont  $\leftarrow \joinrel  \rhook $}}{}{}C\discretionary {\unhbox \voidb@x \hbox {\relax \fontsize  {7}{8}\selectfont  $\leftarrow \joinrel  \rhook $}}{}{}O\discretionary {\unhbox \voidb@x \hbox {\relax \fontsize  {7}{8}\selectfont  $\leftarrow \joinrel  \rhook $}}{}{}N\discretionary {\unhbox \voidb@x \hbox {\relax \fontsize  {7}{8}\selectfont  $\leftarrow \joinrel  \rhook $}}{}{}F\discretionary {\unhbox \voidb@x \hbox {\relax \fontsize  {7}{8}\selectfont  $\leftarrow \joinrel  \rhook $}}{}{}I\discretionary {\unhbox \voidb@x \hbox {\relax \fontsize  {7}{8}\selectfont  $\leftarrow \joinrel  \rhook $}}{}{}G\discretionary {\unhbox \voidb@x \hbox {\relax \fontsize  {7}{8}\selectfont  $\leftarrow \joinrel  \rhook $}}{}{}\_\discretionary {\unhbox \voidb@x \hbox {\relax \fontsize  {7}{8}\selectfont  $\leftarrow \joinrel  \rhook $}}{}{}\discretionary {\unhbox \voidb@x \hbox {\relax \fontsize  {7}{8}\selectfont  $\leftarrow \joinrel  \rhook $}}{}{}M\discretionary {\unhbox \voidb@x \hbox {\relax \fontsize  {7}{8}\selectfont  $\leftarrow \joinrel  \rhook $}}{}{}A\discretionary {\unhbox \voidb@x \hbox {\relax \fontsize  {7}{8}\selectfont  $\leftarrow \joinrel  \rhook $}}{}{}IN}{13}{subsubsection.5.5.1.1}}
\newlabel{_catch_main_8cpp_a656eb5868e824d59f489f910db438420}{{5.5.1.1}{13}{\texorpdfstring {C\+A\+T\+C\+H\+\_\+\+C\+O\+N\+F\+I\+G\+\_\+\+M\+A\+IN}{CATCH_CONFIG_MAIN}}{subsubsection.5.5.1.1}{}}
\@writefile{toc}{\contentsline {section}{\numberline {5.6}test/\discretionary {\unhbox \voidb@x \hbox {\relax \fontsize  {7}{8}\selectfont  $\leftarrow \joinrel  \rhook $}}{}{}Math\discretionary {\unhbox \voidb@x \hbox {\relax \fontsize  {7}{8}\selectfont  $\leftarrow \joinrel  \rhook $}}{}{}Expression\discretionary {\unhbox \voidb@x \hbox {\relax \fontsize  {7}{8}\selectfont  $\leftarrow \joinrel  \rhook $}}{}{}Test.cpp File Reference}{13}{section.5.6}}
\newlabel{_math_expression_test_8cpp}{{5.6}{13}{test/\+Math\+Expression\+Test.cpp File Reference}{section.5.6}{}}
\@writefile{toc}{\contentsline {subsection}{\numberline {5.6.1}Function Documentation}{13}{subsection.5.6.1}}
\@writefile{toc}{\contentsline {subsubsection}{\numberline {5.6.1.1}T\discretionary {\unhbox \voidb@x \hbox {\relax \fontsize  {7}{8}\selectfont  $\leftarrow \joinrel  \rhook $}}{}{}E\discretionary {\unhbox \voidb@x \hbox {\relax \fontsize  {7}{8}\selectfont  $\leftarrow \joinrel  \rhook $}}{}{}S\discretionary {\unhbox \voidb@x \hbox {\relax \fontsize  {7}{8}\selectfont  $\leftarrow \joinrel  \rhook $}}{}{}T\discretionary {\unhbox \voidb@x \hbox {\relax \fontsize  {7}{8}\selectfont  $\leftarrow \joinrel  \rhook $}}{}{}\_\discretionary {\unhbox \voidb@x \hbox {\relax \fontsize  {7}{8}\selectfont  $\leftarrow \joinrel  \rhook $}}{}{}\discretionary {\unhbox \voidb@x \hbox {\relax \fontsize  {7}{8}\selectfont  $\leftarrow \joinrel  \rhook $}}{}{}C\discretionary {\unhbox \voidb@x \hbox {\relax \fontsize  {7}{8}\selectfont  $\leftarrow \joinrel  \rhook $}}{}{}A\discretionary {\unhbox \voidb@x \hbox {\relax \fontsize  {7}{8}\selectfont  $\leftarrow \joinrel  \rhook $}}{}{}S\discretionary {\unhbox \voidb@x \hbox {\relax \fontsize  {7}{8}\selectfont  $\leftarrow \joinrel  \rhook $}}{}{}E(""Math\discretionary {\unhbox \voidb@x \hbox {\relax \fontsize  {7}{8}\selectfont  $\leftarrow \joinrel  \rhook $}}{}{}Expression Test\discretionary {\unhbox \voidb@x \hbox {\relax \fontsize  {7}{8}\selectfont  $\leftarrow \joinrel  \rhook $}}{}{}Case"")}{13}{subsubsection.5.6.1.1}}
\newlabel{_math_expression_test_8cpp_ae4b63a2f00c58ba0452c961aff198374}{{5.6.1.1}{13}{\texorpdfstring {T\+E\+S\+T\+\_\+\+C\+A\+S\+E(""Math\+Expression Test\+Case"")}{TEST_CASE("MathExpression TestCase")}}{subsubsection.5.6.1.1}{}}
\@writefile{toc}{\contentsline {chapter}{Index}{15}{section*.7}}
